…
    ## [1] TRUE

``` r
## Y creamos un tibble con header y secuencia como variables
df_ncrna <- tibble(
    header=header,
    secuencia=secuencia
  )
df_ncrna %>% print(n=10)
```

    ## # A tibble: 411,552 × 2
    ##    header                                                                secue…¹
    ##    <chr>                                                                 <chr>  
    ##  1 >n1 | AB002583 | tmRNA | chloroplast Cyanidioschyzon merolae | ssrA … ACCTCG…
    ##  2 >n2 | AB002583 | RNase P RNA | chloroplast Cyanidioschyzon merolae |… AAGGCA…
    ##  3 >n3 | AB003477 | tmRNA | Synechococcus sp | 10Sa | NONCODE v2.0 | NU… GGGGCT…
    ##  4 >n4 | AB007644 | snoRNA | Arabidopsis thaliana (thale cress) | U3 | … ACGACC…
    ##  5 >n5 | AB009049 | snoRNA | Arabidopsis thaliana (thale cress) | U24 |… GGCCGG…
    ##  6 >n6 | AB009051 | snRNA | Arabidopsis thaliana (thale cress) | U6 | N… GTCCCT…
    ##  7 >n7 | AB010698 | snRNA | Arabidopsis thaliana (thale cress) | U6 | N… GTCCCT…
    ##  8 >n9 | AB013387 | snoRNA | Arabidopsis thaliana (thale cress) | U3 | … ACGACC…
    ##  9 >n10 | AB013390 | snRNA | Arabidopsis thaliana (thale cress) | U2 | … ATACCT…
    ## 10 >n11 | AB013396 | snRNA | Arabidopsis thaliana (thale cress) | U2 | … ATACCT…
    ## # … with 411,542 more rows, and abbreviated variable name ¹​secuencia
…
